{
  "LW_CORRECTION": [0],
  "TEMPERATURE": [19.3],
  "HUMIDITY": [73],
  "ATOMPRESSURE": [1015],
  "GROUND_EFFECT": ["fix6dB"],
  "IS_INTERPOLATE": [true],
  "MAXBUF_FROM_WT": [0],
  "AUTO_MAXBUF": {
    "MAXBUF": [32000],
    "ATTR": ["f80", "weight_A"],
    "THRESHOLD": [38, 28]
  },
  "PRECISION": [5, 5],
  "RCV_RADIUS": [0, 18, 22, 26, 32, 38, 46, 56, 68, 83, 100, 121, 147, 178, 215, 261, 316, 383, 464, 562, 681, 825, 1000, 1211, 1467, 1778, 2154, 2610, 3162, 3831, 4641, 5623, 6812, 8254, 10000, 12115, 14678, 17783, 21544, 26102, 31623, 38312, 46416, 56234, 68129, 82540],
  "RCV_dANGLE": [0.1571],
  "FREQ_BAND": ["1/3oct"],
  "FREQ_CALC": ["f25", "f31", "f40", "f50", "f63", "f80", "f100", "f125", "f160", "f200", "f250", "f315", "f400", "f500", "f630", "f800", "f1000", "f1250", "f1600", "f2000", "f2500", "f3150", "f4000", "f5000", "f6300", "f8000", "f10000"],
  "WEIGHT_CALC": ["weight_A"],
  "WEIGHT_LIB": [
    {
      "weight_name": "weight_A",
      "LW_data": [
        {
          "freq": 6.3,
          "freq_label": "f6",
          "weight": -85.4
        },
        {
          "freq": 8,
          "freq_label": "f8",
          "weight": -77.8
        },
        {
          "freq": 10,
          "freq_label": "f10",
          "weight": -70.4
        },
        {
          "freq": 12.5,
          "freq_label": "f12",
          "weight": -63.4
        },
        {
          "freq": 16,
          "freq_label": "f16",
          "weight": -56.7
        },
        {
          "freq": 20,
          "freq_label": "f20",
          "weight": -50.5
        },
        {
          "freq": 25,
          "freq_label": "f25",
          "weight": -44.7
        },
        {
          "freq": 31.5,
          "freq_label": "f31",
          "weight": -39.4
        },
        {
          "freq": 40,
          "freq_label": "f40",
          "weight": -34.6
        },
        {
          "freq": 50,
          "freq_label": "f50",
          "weight": -30.2
        },
        {
          "freq": 63,
          "freq_label": "f63",
          "weight": -26.2
        },
        {
          "freq": 80,
          "freq_label": "f80",
          "weight": -22.5
        },
        {
          "freq": 100,
          "freq_label": "f100",
          "weight": -19.1
        },
        {
          "freq": 125,
          "freq_label": "f125",
          "weight": -16.1
        },
        {
          "freq": 160,
          "freq_label": "f160",
          "weight": -13.4
        },
        {
          "freq": 200,
          "freq_label": "f200",
          "weight": -10.9
        },
        {
          "freq": 250,
          "freq_label": "f250",
          "weight": -8.6
        },
        {
          "freq": 315,
          "freq_label": "f315",
          "weight": -6.6
        },
        {
          "freq": 400,
          "freq_label": "f400",
          "weight": -4.8
        },
        {
          "freq": 500,
          "freq_label": "f500",
          "weight": -3.2
        },
        {
          "freq": 630,
          "freq_label": "f630",
          "weight": -1.9
        },
        {
          "freq": 800,
          "freq_label": "f800",
          "weight": -0.8
        },
        {
          "freq": 1000,
          "freq_label": "f1000",
          "weight": 0
        },
        {
          "freq": 1250,
          "freq_label": "f1250",
          "weight": 0.6
        },
        {
          "freq": 1600,
          "freq_label": "f1600",
          "weight": 1
        },
        {
          "freq": 2000,
          "freq_label": "f2000",
          "weight": 1.2
        },
        {
          "freq": 2500,
          "freq_label": "f2500",
          "weight": 1.3
        },
        {
          "freq": 3150,
          "freq_label": "f3150",
          "weight": 1.2
        },
        {
          "freq": 4000,
          "freq_label": "f4000",
          "weight": 1
        },
        {
          "freq": 5000,
          "freq_label": "f5000",
          "weight": 0.5
        },
        {
          "freq": 6300,
          "freq_label": "f6300",
          "weight": -0.1
        },
        {
          "freq": 8000,
          "freq_label": "f8000",
          "weight": -1.1
        },
        {
          "freq": 10000,
          "freq_label": "f10000",
          "weight": -2.5
        },
        {
          "freq": 12500,
          "freq_label": "f12500",
          "weight": -4.3
        },
        {
          "freq": 16000,
          "freq_label": "f16000",
          "weight": -6.6
        },
        {
          "freq": 20000,
          "freq_label": "f20000",
          "weight": -9.3
        }
      ]
    }
  ]
}
